AARD_B1_crRNA0223:223-249	4665
AARD_B2_crRNA0188:188-214	5210
AARD_B3_crRNA0327:339-365	5553
AARD_T1_crRNA0163:163-189	4740
AARD_T2_crRNA0653:720-746	3781
AARD_T3_crRNA0296:308-334	4665
ARCN1_B1_crRNA0543:669-695	4174
ARCN1_B2_crRNA0071:71-97	3709
ARCN1_B3_crRNA0603:729-755	5240
ARCN1_T1_crRNA1248:1451-1477	4711
ARCN1_T2_crRNA1188:1368-1394	1947
ARCN1_T3_crRNA0814:940-966	2652
CCT7_B1_crRNA0464:510-536	4450
CCT7_B2_crRNA1585:1775-1801	4327
CCT7_B3_crRNA1541:1708-1734	4001
CCT7_T1_crRNA0982:1075-1101	1688
CCT7_T2_crRNA0203:226-252	2794
CCT7_T3_crRNA0509:555-581	254
CDKN2A_B1_crRNA228:321-347	4617
CDKN2A_B2_crRNA324:417-443	3767
CDKN2A_B3_crRNA158:228-254	5274
CDKN2A_T1_crRNA255:348-374	4300
CDKN2A_T2_crRNA103:149-175	3651
CDKN2A_T3_crRNA208:301-327	5504
CHEK2_B1_crRNA1276:1663-1689	3766
CHEK2_B2_crRNA0226:226-252	4656
CHEK2_B3_crRNA0331:331-357	4060
CHEK2_T1_crRNA0726:850-876	5421
CHEK2_T2_crRNA0632:756-782	5675
CHEK2_T3_crRNA0942:1280-1306	4897
EIF3B_B1_crRNA0269:287-313	4166
EIF3B_B2_crRNA0464:505-531	3979
EIF3B_B3_crRNA0125:125-151	4591
EIF3B_T1_crRNA1359:1719-1745	1219
EIF3B_T2_crRNA0778:936-962	473
EIF3B_T3_crRNA0608:718-744	4241
MESDC1_B1_crRNA0705:820-846	4556
MESDC1_B2_crRNA0619:734-760	4745
MESDC1_B3_crRNA1588:1804-1830	6070
MESDC1_T1_crRNA1719:1959-1985	4835
MESDC1_T2_crRNA1775:2015-2041	3587
MESDC1_T3_crRNA1215:1404-1430	4627
NF1_B1_crRNA0277:423-449	4281
NF1_B2_crRNA2347:2955-2981	4116
NF1_B3_crRNA6472:7913-7939	3933
NF1_T1_crRNA2932:3633-3659	4174
NF1_T2_crRNA4425:5509-5535	2921
NF1_T3_crRNA2072:2657-2683	4781
NF2_B1_crRNA0205:205-231	4262
NF2_B2_crRNA0067:67-93	4600
NF2_B3_crRNA1676:1865-1891	4150
NF2_T1_crRNA1422:1611-1637	4687
NF2_T2_crRNA0884:1027-1053	4580
NF2_T3_crRNA0825:968-994	6304
NT_rc_000038	3907
NT_rc_000341	2952
NT_rc_000358	3407
NUP133_B1_crRNA0093:93-119	5126
NUP133_B2_crRNA0203:203-229	4778
NUP133_B3_crRNA1694:2067-2093	4829
NUP133_T1_crRNA1793:2191-2217	3299
NUP133_T2_crRNA0828:914-940	1975
NUP133_T3_crRNA0428:428-454	5890
PRPF19_B1_crRNA0375:398-424	4104
PRPF19_B2_crRNA0854:877-903	5435
PRPF19_B3_crRNA1287:1367-1393	4923
PRPF19_T1_crRNA1017:1097-1123	5424
PRPF19_T2_crRNA0275:298-324	3871
PRPF19_T3_crRNA0736:759-785	4040
PSMB2_B1_crRNA0164:238-264	3540
PSMB2_B2_crRNA1253:1634-1660	3318
PSMB2_B3_crRNA0379:453-479	4857
PSMB2_T1_crRNA0744:865-891	1346
PSMB2_T2_crRNA0630:727-753	2733
PSMB2_T3_crRNA0269:343-369	4175
PSMB6_B1_crRNA121:144-170	902
PSMB6_B2_crRNA291:375-401	4430
PSMB6_B3_crRNA610:742-768	3342
PSMB6_T1_crRNA471:579-605	1771
PSMB6_T2_crRNA570:678-704	1250
PSMB6_T3_crRNA348:432-458	1230
PTCD1_B1_crRNA1336:1521-1547	5183
PTCD1_B2_crRNA1628:1896-1922	4575
PTCD1_B3_crRNA0374:397-423	4868
PTCD1_T1_crRNA1794:2085-2111	5510
PTCD1_T2_crRNA1414:1659-1685	5625
PTCD1_T3_crRNA0401:424-450	4917
PTEN_B1_crRNA0241:264-290	3798
PTEN_B2_crRNA0854:1120-1146	4515
PTEN_B3_crRNA0293:352-378	4409
PTEN_T1_crRNA0603:757-783	4948
PTEN_T2_crRNA1411:1817-1843	2993
PTEN_T3_crRNA1568:1997-2023	5342
RB1_B1_crRNA0137:247-273	4143
RB1_B2_crRNA0060:92-118	4065
RB1_B3_crRNA1470:2029-2055	4416
RB1_T1_crRNA0649:895-921	4271
RB1_T2_crRNA0999:1440-1466	4976
RB1_T3_crRNA2041:2773-2799	7258
SFPQ_B1_crRNA0348:393-419	3927
SFPQ_B2_crRNA0482:550-576	3364
SFPQ_B3_crRNA0533:601-627	3480
SFPQ_T1_crRNA1163:1313-1339	3264
SFPQ_T2_crRNA1843:2136-2162	4269
SFPQ_T3_crRNA1599:1892-1918	1655
SNRNP200_B1_crRNA1708:1874-1900	4426
SNRNP200_B2_crRNA2069:2329-2355	3685
SNRNP200_B3_crRNA0751:774-800	2723
SNRNP200_T1_crRNA0891:962-988	3564
SNRNP200_T2_crRNA1423:1543-1569	1043
SNRNP200_T3_crRNA2305:2613-2639	346
SUPT5H_B1_crRNA2474:2707-2733	3302
SUPT5H_B2_crRNA2671:2980-3006	4414
SUPT5H_B3_crRNA2590:2876-2902	3717
SUPT5H_T1_crRNA0902:973-999	5993
SUPT5H_T2_crRNA1128:1199-1225	1927
SUPT5H_T3_crRNA0404:452-478	6706
TSC2_B1_crRNA0493:540-566	4295
TSC2_B2_crRNA1407:1477-1503	4513
TSC2_B3_crRNA1243:1313-1339	4602
TSC2_T1_crRNA0762:832-858	5337
TSC2_T2_crRNA0110:133-159	6028
TSC2_T3_crRNA0902:972-998	5757
